{
  "project_info": {
    "project_number": "671115773762",
    "firebase_url": "https://team-fight.firebaseio.com",
    "project_id": "team-fight",
    "storage_bucket": "team-fight.appspot.com"
  },
  "client": [
    {
      "client_info": {
        "mobilesdk_app_id": "1:671115773762:android:47540a2bc9560c42",
        "android_client_info": {
          "package_name": "com.lohika.ovashchenko.teamfights"
        }
      },
      "oauth_client": [
        {
          "client_id": "671115773762-r64mehsftjjl37k8vhfetsc85n7u4mhi.apps.googleusercontent.com",
          "client_type": 1,
          "android_info": {
            "package_name": "com.lohika.ovashchenko.teamfights",
            "certificate_hash": "da07931b7e1fef5d861db8744303693d6aa4013f"
          }
        },
        {
          "client_id": "671115773762-hntnbrbuod1htoqqo1hn21ts9cmkq7i7.apps.googleusercontent.com",
          "client_type": 3
        }
      ],
      "api_key": [
        {
          "current_key": "AIzaSyDazqEaT0cfdD0dT_TqA4LdufpOgm49Wko"
        }
      ],
      "services": {
        "analytics_service": {
          "status": 1
        },
        "appinvite_service": {
          "status": 2,
          "other_platform_oauth_client": [
            {
              "client_id": "671115773762-hntnbrbuod1htoqqo1hn21ts9cmkq7i7.apps.googleusercontent.com",
              "client_type": 3
            }
          ]
        },
        "ads_service": {
          "status": 2
        }
      }
    }
  ],
  "configuration_version": "1"
}